<?xml version="1.0" encoding="UTF-8" standalone="no"?>
<svg
   xmlns:dc="http://purl.org/dc/elements/1.1/"
   xmlns:cc="http://creativecommons.org/ns#"
   xmlns:rdf="http://www.w3.org/1999/02/22-rdf-syntax-ns#"
   xmlns:svg="http://www.w3.org/2000/svg"
   xmlns="http://www.w3.org/2000/svg"
   xmlns:xlink="http://www.w3.org/1999/xlink"
   xmlns:sodipodi="http://sodipodi.sourceforge.net/DTD/sodipodi-0.dtd"
   xmlns:inkscape="http://www.inkscape.org/namespaces/inkscape"
   viewBox="0 0 128 128"
   style="display:inline;enable-background:new"
   version="1.0"
   id="svg11300"
   height="128"
   width="128"
   sodipodi:docname="org.gnome.Terminal.svg"
   inkscape:version="1.0.2 (e86c870879, 2021-01-15)">
  <sodipodi:namedview
     pagecolor="#ffffff"
     bordercolor="#666666"
     borderopacity="1"
     objecttolerance="10"
     gridtolerance="10"
     guidetolerance="10"
     inkscape:pageopacity="0"
     inkscape:pageshadow="2"
     inkscape:window-width="1920"
     inkscape:window-height="1016"
     id="namedview951"
     showgrid="false"
     inkscape:zoom="4.7830117"
     inkscape:cx="32.428573"
     inkscape:cy="80.474169"
     inkscape:window-x="0"
     inkscape:window-y="0"
     inkscape:window-maximized="1"
     inkscape:current-layer="layer9"
     inkscape:document-rotation="0"
     showguides="false">
    <inkscape:grid
       type="xygrid"
       id="grid968" />
  </sodipodi:namedview>
  <!--
  Copyright © 2018 Tobias Bernard
  Copyright © 2018 Lapo Calamandrei
  Copyright © 2018 Sam Hewitt

  This program is free software; you can redistribute it and/or modify
  it under the terms of the GNU General Public License as published by
  the Free Software Foundation; either version 3, or (at your option)
  any later version.

  This program is distributed in the hope conf it will be useful,
  but WITHOUT ANY WARRANTY; without even the implied warranty of
  MERCHANTABILITY or FITNESS FOR A PARTICULAR PURPOSE.  See the
  GNU General Public License for more details.

  You should have received a copy of the GNU General Public License
  along with this program.  If not, see <http://www.gnu.org/licenses/>.
-->
  <title
     id="title4162">Adwaita Icon Template</title>
  <defs
     id="defs3">
    <linearGradient
       id="linearGradient1948">
      <stop
         id="stop1944"
         offset="0"
         style="stop-color:#282828;stop-opacity:1" />
      <stop
         id="stop1946"
         offset="1"
         style="stop-color:#1d2021;stop-opacity:1" />
    </linearGradient>
    <linearGradient
       id="linearGradient1020">
      <stop
         id="stop1016"
         offset="0"
         style="stop-color:#ffffff;stop-opacity:1;" />
      <stop
         id="stop1018"
         offset="1"
         style="stop-color:#ffffff;stop-opacity:0.09411765" />
    </linearGradient>
    <linearGradient
       id="linearGradient1001">
      <stop
         id="stop989"
         offset="0"
         style="stop-color:#282828;stop-opacity:1" />
      <stop
         style="stop-color:#4a4d4d;stop-opacity:1"
         offset="0.05"
         id="stop991" />
      <stop
         id="stop993"
         offset="0.09999998"
         style="stop-color:#282828;stop-opacity:1" />
      <stop
         style="stop-color:#282828;stop-opacity:1"
         offset="0.89999938"
         id="stop995" />
      <stop
         id="stop997"
         offset="0.94999999"
         style="stop-color:#4a4d4d;stop-opacity:1" />
      <stop
         id="stop999"
         offset="1"
         style="stop-color:#282828;stop-opacity:1" />
    </linearGradient>
    <linearGradient
       gradientUnits="userSpaceOnUse"
       y2="44"
       x2="464"
       y1="44"
       x1="48"
       id="linearGradient965"
       xlink:href="#linearGradient1001" />
    <radialGradient
       gradientUnits="userSpaceOnUse"
       gradientTransform="matrix(-4.7272726,7.935912e-7,-3.0301491e-7,-1.6363636,238.54547,49.766183)"
       r="44"
       fy="194.19048"
       fx="63.999996"
       cy="194.19048"
       cx="63.999996"
       id="radialGradient1030"
       xlink:href="#linearGradient1020" />
    <linearGradient
       gradientUnits="userSpaceOnUse"
       y2="269.13693"
       x2="70.346565"
       y1="245.39511"
       x1="70.346565"
       id="linearGradient1950"
       xlink:href="#linearGradient1948" />
  </defs>
  <metadata
     id="metadata4">
    <rdf:RDF>
      <cc:Work
         rdf:about="">
        <dc:format>image/svg+xml</dc:format>
        <dc:type
           rdf:resource="http://purl.org/dc/dcmitype/StillImage" />
        <dc:creator>
          <cc:Agent>
            <dc:title>GNOME Design Team</dc:title>
          </cc:Agent>
        </dc:creator>
        <dc:source />
        <cc:license
           rdf:resource="http://creativecommons.org/licenses/by-sa/4.0/" />
        <dc:title>Adwaita Icon Template</dc:title>
        <dc:subject>
          <rdf:Bag />
        </dc:subject>
        <dc:date />
        <dc:rights>
          <cc:Agent>
            <dc:title />
          </cc:Agent>
        </dc:rights>
        <dc:publisher>
          <cc:Agent>
            <dc:title />
          </cc:Agent>
        </dc:publisher>
        <dc:identifier />
        <dc:relation />
        <dc:language />
        <dc:coverage />
        <dc:description />
        <dc:contributor>
          <cc:Agent>
            <dc:title />
          </cc:Agent>
        </dc:contributor>
      </cc:Work>
      <cc:License
         rdf:about="http://creativecommons.org/licenses/by-sa/4.0/">
        <cc:permits
           rdf:resource="http://creativecommons.org/ns#Reproduction" />
        <cc:permits
           rdf:resource="http://creativecommons.org/ns#Distribution" />
        <cc:requires
           rdf:resource="http://creativecommons.org/ns#Notice" />
        <cc:requires
           rdf:resource="http://creativecommons.org/ns#Attribution" />
        <cc:permits
           rdf:resource="http://creativecommons.org/ns#DerivativeWorks" />
        <cc:requires
           rdf:resource="http://creativecommons.org/ns#ShareAlike" />
      </cc:License>
    </rdf:RDF>
  </metadata>
  <g
     transform="translate(0,-172)"
     style="display:inline"
     id="layer1">
    <g
       style="display:inline"
       id="layer9">
      <g
         transform="rotate(-30,420.69873,288.4192)"
         id="g1710"
         style="display:inline;enable-background:new" />
      <rect
         style="display:inline;opacity:1;fill:#111213;fill-opacity:1;stroke:none;stroke-width:1;stroke-linecap:butt;stroke-linejoin:miter;stroke-miterlimit:4;stroke-dasharray:none;stroke-dashoffset:0;stroke-opacity:1;marker:none;marker-start:none;marker-mid:none;marker-end:none;paint-order:normal;enable-background:new"
         id="rect953"
         width="416"
         height="110.67733"
         x="48"
         y="141.32262"
         rx="32"
         ry="26.572556"
         transform="matrix(0.25,0,0,0.25,0,225)" />
      <rect
         ry="32"
         rx="32"
         y="-164"
         x="48"
         height="384"
         width="416"
         id="rect950"
         style="display:inline;opacity:1;fill:#1d1f21;fill-opacity:1;stroke:none;stroke-width:1;stroke-linecap:butt;stroke-linejoin:miter;stroke-miterlimit:4;stroke-dasharray:none;stroke-dashoffset:0;stroke-opacity:1;marker:none;marker-start:none;marker-mid:none;marker-end:none;paint-order:normal;enable-background:new"
         transform="matrix(0.25,0,0,0.25,0,225)" />
      <g
         aria-label="[~]$ _"
         id="text958"
         style="font-size:24px;line-height:1.25;font-family:Cantarell;-inkscape-font-specification:Cantarell;letter-spacing:-3.41px;fill:#ffffff;fill-opacity:1">
        <path
           d="m 28,200 h 5.953125 v 2.22656 h -2.835938 v 16.94531 h 2.835938 v 2.22657 H 28 Z"
           style="font-style:normal;font-variant:normal;font-weight:bold;font-stretch:normal;font-size:24px;font-family:monospace;-inkscape-font-specification:'monospace Bold';fill:#ffffff;fill-opacity:1"
           id="path1591" />
        <path
           d="m 47.511875,208.73047 v 2.73047 q -0.878906,0.70312 -1.722656,1.03125 -0.832031,0.3164 -1.757813,0.3164 -1.054687,0 -2.378906,-0.59765 -0.257812,-0.11719 -0.386719,-0.16407 -0.902343,-0.39843 -1.511718,-0.53906 -0.597657,-0.14062 -1.195313,-0.14062 -0.914062,0 -1.746094,0.33984 -0.820312,0.33984 -1.6875,1.07813 v -2.6836 q 0.914063,-0.71484 1.769532,-1.03125 0.855468,-0.3164 1.828125,-0.3164 0.621093,0 1.207031,0.1289 0.585937,0.12891 1.453125,0.49219 0.128906,0.0586 0.386719,0.17578 1.359375,0.64453 2.449218,0.64453 0.820313,0 1.628907,-0.35156 0.808593,-0.36328 1.664062,-1.11328 z"
           style="font-style:normal;font-variant:normal;font-weight:bold;font-stretch:normal;font-size:24px;font-family:monospace;-inkscape-font-specification:'monospace Bold';fill:#ffffff;fill-opacity:1"
           id="path1593" />
        <path
           d="m 54.637032,200 v 21.39844 h -5.953125 v -2.22657 h 2.835937 V 202.22656 H 48.683907 V 200 Z"
           style="font-style:normal;font-variant:normal;font-weight:bold;font-stretch:normal;font-size:24px;font-family:monospace;-inkscape-font-specification:'monospace Bold';fill:#ffffff;fill-opacity:1"
           id="path1595" />
        <path
           d="m 64.305157,212.04687 v 3.53907 q 0.738281,-0.10547 1.148437,-0.5625 0.410156,-0.46875 0.410156,-1.1836 0,-0.72656 -0.410156,-1.18359 -0.398437,-0.46875 -1.148437,-0.60938 z m -1.652344,-3.38671 v -3.31641 q -0.726563,0.0937 -1.101563,0.49219 -0.363281,0.38672 -0.363281,1.0664 0,0.66797 0.363281,1.11328 0.375,0.44532 1.101563,0.64454 z m 1.652344,13.10156 h -1.652344 l -0.01172,-3.52735 q -1.019531,-0.0352 -2.132812,-0.30468 -1.113282,-0.26953 -2.320313,-0.77344 v -3.07031 q 1.207031,0.71484 2.332031,1.10156 1.136719,0.38672 2.132813,0.39844 v -3.85547 q -2.308594,-0.45703 -3.433594,-1.57031 -1.125,-1.125 -1.125,-2.96485 0,-1.95703 1.195313,-3.11719 1.195312,-1.16015 3.363281,-1.30078 V 200 h 1.652344 l 0.01172,2.77734 q 0.832032,0.0469 1.722657,0.21094 0.902343,0.16406 1.839843,0.45703 v 3 q -0.726562,-0.46875 -1.617187,-0.75 -0.890625,-0.28125 -1.957031,-0.35156 v 3.59766 q 2.308593,0.36328 3.480468,1.58203 1.183594,1.20703 1.183594,3.22265 0,1.92188 -1.277344,3.15235 -1.265625,1.23047 -3.375,1.33593 z"
           style="font-style:normal;font-variant:normal;font-weight:bold;font-stretch:normal;font-size:24px;font-family:monospace;-inkscape-font-specification:'monospace Bold';fill:#ffffff;fill-opacity:1"
           id="path1597" />
        <path
           d="m 92.700001,221.66797 v 2.22656 H 78.250782 v -2.22656 z"
           style="font-style:normal;font-variant:normal;font-weight:bold;font-stretch:normal;font-size:24px;font-family:monospace;-inkscape-font-specification:'monospace Bold';fill:#ffffff;fill-opacity:1"
           id="path1599" />
      </g>
      <text
         xml:space="preserve"
         style="font-size:24px;line-height:1.25;font-family:Cantarell;-inkscape-font-specification:Cantarell;letter-spacing:-3.41px;display:inline;fill:#00ff00;fill-opacity:1;enable-background:new;"
         x="-84.736168"
         y="218.23438"
         id="text958-1"><tspan
           sodipodi:role="line"
           id="tspan956-2"
           x="-84.736168"
           y="218.23438"
           style="font-style:normal;font-variant:normal;font-weight:bold;font-stretch:normal;font-size:24px;font-family:monospace;-inkscape-font-specification:'monospace Bold';fill:#00ff00;fill-opacity:1;">[~]$ _</tspan></text>
    </g>
    <g
       inkscape:groupmode="layer"
       id="layer2"
       inkscape:label="Layer 1"
       style="display:none;mix-blend-mode:normal">
      <g
         id="g976"
         transform="translate(-72.126808,-2)"
         style="display:inline;fill:#00ffff;fill-opacity:1;enable-background:new">
        <path
           d="M 44.012301,210.88755 30,203.27182 V 208 l 9.710724,4.62951 v 0.1422 L 30,218 v 4.72818 l 14.012301,-8.21451 z"
           style="font-style:normal;font-variant:normal;font-weight:bold;font-stretch:normal;font-size:medium;line-height:1.25;font-family:'Source Code Pro';-inkscape-font-specification:'Source Code Pro, Bold';font-variant-ligatures:normal;font-variant-caps:normal;font-variant-numeric:normal;font-feature-settings:normal;text-align:start;letter-spacing:0px;word-spacing:0px;writing-mode:lr-tb;text-anchor:start;fill:#00ffff;fill-opacity:1;stroke:none;stroke-width:0.25"
           id="path972" />
        <path
           d="m 47.999998,226 2e-6,4 h 16.00001 l -2e-6,-4 z"
           style="font-style:normal;font-variant:normal;font-weight:bold;font-stretch:normal;font-size:medium;line-height:1.25;font-family:'Source Code Pro';-inkscape-font-specification:'Source Code Pro, Bold';font-variant-ligatures:normal;font-variant-caps:normal;font-variant-numeric:normal;font-feature-settings:normal;text-align:start;letter-spacing:0px;word-spacing:0px;writing-mode:lr-tb;text-anchor:start;fill:#00ffff;fill-opacity:1;stroke:none;stroke-width:0.25"
           id="path974" />
      </g>
    </g>
  </g>
</svg>
