<?xml version="1.0" encoding="UTF-8" standalone="no"?>
<svg
   xmlns:dc="http://purl.org/dc/elements/1.1/"
   xmlns:cc="http://creativecommons.org/ns#"
   xmlns:rdf="http://www.w3.org/1999/02/22-rdf-syntax-ns#"
   xmlns:svg="http://www.w3.org/2000/svg"
   xmlns="http://www.w3.org/2000/svg"
   xmlns:xlink="http://www.w3.org/1999/xlink"
   xmlns:sodipodi="http://sodipodi.sourceforge.net/DTD/sodipodi-0.dtd"
   xmlns:inkscape="http://www.inkscape.org/namespaces/inkscape"
   viewBox="0 0 128 128"
   style="display:inline;enable-background:new"
   version="1.0"
   id="svg11300"
   height="128"
   width="128"
   sodipodi:docname="com.gitlab.miridyan.Mt.Devel.svg"
   inkscape:version="1.0.2 (e86c870879, 2021-01-15)">
  <sodipodi:namedview
     pagecolor="#ffffff"
     bordercolor="#666666"
     borderopacity="1"
     objecttolerance="10"
     gridtolerance="10"
     guidetolerance="10"
     inkscape:pageopacity="0"
     inkscape:pageshadow="2"
     inkscape:window-width="1920"
     inkscape:window-height="1016"
     id="namedview951"
     showgrid="true"
     inkscape:zoom="5.559225"
     inkscape:cx="67.487698"
     inkscape:cy="52.55758"
     inkscape:window-x="0"
     inkscape:window-y="0"
     inkscape:window-maximized="1"
     inkscape:current-layer="layer9"
     inkscape:document-rotation="0"
     showguides="false">
    <inkscape:grid
       type="xygrid"
       id="grid968" />
  </sodipodi:namedview>
  <!--
  Copyright © 2018 Tobias Bernard
  Copyright © 2018 Lapo Calamandrei
  Copyright © 2018 Sam Hewitt

  This program is free software; you can redistribute it and/or modify
  it under the terms of the GNU General Public License as published by
  the Free Software Foundation; either version 3, or (at your option)
  any later version.

  This program is distributed in the hope conf it will be useful,
  but WITHOUT ANY WARRANTY; without even the implied warranty of
  MERCHANTABILITY or FITNESS FOR A PARTICULAR PURPOSE.  See the
  GNU General Public License for more details.

  You should have received a copy of the GNU General Public License
  along with this program.  If not, see <http://www.gnu.org/licenses/>.
-->
  <title
     id="title4162">Adwaita Icon Template</title>
  <defs
     id="defs3">
    <linearGradient
       id="linearGradient1948">
      <stop
         id="stop1944"
         offset="0"
         style="stop-color:#282828;stop-opacity:1" />
      <stop
         id="stop1946"
         offset="1"
         style="stop-color:#1d2021;stop-opacity:1" />
    </linearGradient>
    <linearGradient
       id="linearGradient1020">
      <stop
         id="stop1016"
         offset="0"
         style="stop-color:#ffffff;stop-opacity:1;" />
      <stop
         id="stop1018"
         offset="1"
         style="stop-color:#ffffff;stop-opacity:0.09411765" />
    </linearGradient>
    <linearGradient
       id="linearGradient1001">
      <stop
         id="stop989"
         offset="0"
         style="stop-color:#282828;stop-opacity:1" />
      <stop
         style="stop-color:#4a4d4d;stop-opacity:1"
         offset="0.05"
         id="stop991" />
      <stop
         id="stop993"
         offset="0.09999998"
         style="stop-color:#282828;stop-opacity:1" />
      <stop
         style="stop-color:#282828;stop-opacity:1"
         offset="0.89999938"
         id="stop995" />
      <stop
         id="stop997"
         offset="0.94999999"
         style="stop-color:#4a4d4d;stop-opacity:1" />
      <stop
         id="stop999"
         offset="1"
         style="stop-color:#282828;stop-opacity:1" />
    </linearGradient>
    <linearGradient
       gradientUnits="userSpaceOnUse"
       y2="44"
       x2="464"
       y1="44"
       x1="48"
       id="linearGradient965"
       xlink:href="#linearGradient1001" />
    <radialGradient
       gradientUnits="userSpaceOnUse"
       gradientTransform="matrix(-4.7272726,7.935912e-7,-3.0301491e-7,-1.6363636,238.54547,49.766183)"
       r="44"
       fy="194.19048"
       fx="63.999996"
       cy="194.19048"
       cx="63.999996"
       id="radialGradient1030"
       xlink:href="#linearGradient1020" />
    <linearGradient
       gradientUnits="userSpaceOnUse"
       y2="269.13693"
       x2="70.346565"
       y1="245.39511"
       x1="70.346565"
       id="linearGradient1950"
       xlink:href="#linearGradient1948" />
    <clipPath
       id="clip13">
      <rect
         x="0"
         y="0"
         width="128"
         height="128"
         id="rect245" />
    </clipPath>
    <inkscape:path-effect
       effect="powermask"
       id="path-effect2148"
       is_visible="true"
       lpeversion="0"
       uri="#mask-powermask-path-effect2148"
       invert="false"
       hide_mask="false"
       background="false"
       background_color="#ffffffff" />
    <clipPath
       id="clip14">
      <rect
         x="0"
         y="0"
         width="128"
         height="128"
         id="rect237" />
    </clipPath>
    <linearGradient
       inkscape:collect="always"
       xlink:href="#linear6"
       id="linearGradient2038"
       gradientUnits="userSpaceOnUse"
       gradientTransform="matrix(0,0.37,-0.98462,0,295.38501,-30.360001)"
       x1="300"
       y1="235"
       x2="428"
       y2="235" />
    <linearGradient
       id="linear6"
       gradientUnits="userSpaceOnUse"
       x1="300"
       y1="235"
       x2="428"
       y2="235"
       gradientTransform="matrix(0,0.37,-0.98462,0,295.38501,-30.360001)">
      <stop
         offset="0"
         style="stop-color:rgb(97.647059%,94.117647%,41.960785%);stop-opacity:1;"
         id="stop232" />
      <stop
         offset="1"
         style="stop-color:rgb(96.078432%,76.078433%,6.666667%);stop-opacity:1;"
         id="stop234" />
    </linearGradient>
    <mask
       maskUnits="userSpaceOnUse"
       id="mask877">
      <rect
         style="display:inline;opacity:1;fill:#ffffff;fill-opacity:1;stroke:none;stroke-width:0.248326;stroke-linecap:butt;stroke-linejoin:miter;stroke-miterlimit:4;stroke-dasharray:none;stroke-dashoffset:0;stroke-opacity:1;marker:none;marker-start:none;marker-mid:none;marker-end:none;paint-order:normal;enable-background:new"
         id="rect879"
         width="104"
         height="102.61198"
         x="12"
         y="17.494789"
         rx="8"
         ry="7.893229" />
    </mask>
  </defs>
  <metadata
     id="metadata4">
    <rdf:RDF>
      <cc:Work
         rdf:about="">
        <dc:format>image/svg+xml</dc:format>
        <dc:type
           rdf:resource="http://purl.org/dc/dcmitype/StillImage" />
        <dc:creator>
          <cc:Agent>
            <dc:title>GNOME Design Team</dc:title>
          </cc:Agent>
        </dc:creator>
        <dc:source />
        <cc:license
           rdf:resource="http://creativecommons.org/licenses/by-sa/4.0/" />
        <dc:title>Adwaita Icon Template</dc:title>
        <dc:subject>
          <rdf:Bag />
        </dc:subject>
        <dc:date />
        <dc:rights>
          <cc:Agent>
            <dc:title />
          </cc:Agent>
        </dc:rights>
        <dc:publisher>
          <cc:Agent>
            <dc:title />
          </cc:Agent>
        </dc:publisher>
        <dc:identifier />
        <dc:relation />
        <dc:language />
        <dc:coverage />
        <dc:description />
        <dc:contributor>
          <cc:Agent>
            <dc:title />
          </cc:Agent>
        </dc:contributor>
      </cc:Work>
      <cc:License
         rdf:about="http://creativecommons.org/licenses/by-sa/4.0/">
        <cc:permits
           rdf:resource="http://creativecommons.org/ns#Reproduction" />
        <cc:permits
           rdf:resource="http://creativecommons.org/ns#Distribution" />
        <cc:requires
           rdf:resource="http://creativecommons.org/ns#Notice" />
        <cc:requires
           rdf:resource="http://creativecommons.org/ns#Attribution" />
        <cc:permits
           rdf:resource="http://creativecommons.org/ns#DerivativeWorks" />
        <cc:requires
           rdf:resource="http://creativecommons.org/ns#ShareAlike" />
      </cc:License>
    </rdf:RDF>
  </metadata>
  <g
     transform="translate(0,-172)"
     style="display:inline"
     id="layer1">
    <g
       style="display:inline"
       id="layer9">
      <g
         transform="rotate(-30,420.69873,288.4192)"
         id="g1710"
         style="display:inline;enable-background:new" />
      <rect
         style="display:inline;opacity:1;fill:#241f31;fill-opacity:1;stroke:none;stroke-width:1;stroke-linecap:butt;stroke-linejoin:miter;stroke-miterlimit:4;stroke-dasharray:none;stroke-dashoffset:0;stroke-opacity:1;marker:none;marker-start:none;marker-mid:none;marker-end:none;paint-order:normal;enable-background:new"
         id="rect953"
         width="416"
         height="110.67733"
         x="48"
         y="141.32262"
         rx="32"
         ry="26.572556"
         transform="matrix(0.25,0,0,0.25,0,225)" />
      <rect
         ry="32"
         rx="32"
         y="-164"
         x="48"
         height="384"
         width="416"
         id="rect950"
         style="display:inline;opacity:1;fill:#3d3846;fill-opacity:1;stroke:none;stroke-width:1;stroke-linecap:butt;stroke-linejoin:miter;stroke-miterlimit:4;stroke-dasharray:none;stroke-dashoffset:0;stroke-opacity:1;marker:none;marker-start:none;marker-mid:none;marker-end:none;paint-order:normal;enable-background:new"
         transform="matrix(0.25,0,0,0.25,0,225)" />
      <text
         xml:space="preserve"
         style="font-size:24px;line-height:1.25;font-family:Cantarell;-inkscape-font-specification:Cantarell;letter-spacing:-3.41px;display:inline;fill:#00ff00;fill-opacity:1;enable-background:new"
         x="-89.336571"
         y="224.32361"
         id="text958-1"><tspan
           sodipodi:role="line"
           id="tspan956-2"
           x="-89.336571"
           y="224.32361"
           style="font-style:normal;font-variant:normal;font-weight:bold;font-stretch:normal;font-size:24px;font-family:monospace;-inkscape-font-specification:'monospace Bold';fill:#00ff00;fill-opacity:1">$ █ </tspan></text>
      <g
         aria-label="$"
         id="text888"
         style="font-size:35.2913px;line-height:1.25;font-family:Cantarell;-inkscape-font-specification:Cantarell;letter-spacing:-3.88962px;display:inline;fill:#f6f5f4;fill-opacity:1;stroke-width:1.14063;enable-background:new"
         transform="matrix(0.9877331,0,0,1.0605136,1.3039307,-12.655336)">
        <path
           d="m 27.432582,222.75461 c 1.764565,1.55282 4.446704,2.54097 6.740639,2.78801 v 5.15253 h 3.458547 v -5.2584 c 3.917335,-0.67054 5.999522,-3.03505 5.999522,-5.99952 0,-6.42302 -10.269769,-6.1054 -10.269769,-8.61108 0,-1.05874 0.846991,-1.6234 2.4351,-1.6234 1.941021,0 3.246799,0.59995 4.905491,1.76457 l 2.576265,-2.96447 c -1.446944,-1.48224 -3.211509,-2.57627 -5.646609,-2.89389 v -4.58787 h -3.458547 v 4.62316 c -3.564422,0.56466 -5.787774,2.71743 -5.787774,5.75248 0,6.4936 10.30506,5.96423 10.30506,8.9287 0,0.98816 -0.917574,1.58811 -2.611556,1.58811 -2.223352,0 -4.164374,-0.8117 -6.387726,-2.18806 z"
           style="font-style:normal;font-variant:normal;font-weight:bold;font-stretch:normal;font-size:35.2913px;font-family:'Source Code Pro';-inkscape-font-specification:'Source Code Pro Bold';fill:#f6f5f4;fill-opacity:1;stroke-width:1.14063"
           id="path927" />
      </g>
      <rect
         style="fill:#f6f5f4;fill-opacity:1;stroke-width:0.955812"
         id="rect930"
         width="16"
         height="32"
         x="56"
         y="200"
         rx="0"
         ry="0" />
      <g
         id="use285"
         clip-path="url(#clip13)"
         transform="matrix(1,0,0,1.0135269,0,166.26856)"
         mask="url(#mask877)"
         style="display:inline;enable-background:new">
        <g
           id="use2028"
           clip-path="url(#clip14)">
          <path
             style="fill:url(#linearGradient2038);fill-rule:nonzero;stroke:none"
             d="M 128,80.640625 V 128 H 0 V 80.640625 Z m 0,0"
             id="path2032" />
          <path
             style="fill:#000000;fill-opacity:1;fill-rule:nonzero;stroke:none"
             d="M 13.308594,80.640625 60.664062,128 H 81.878906 L 34.519531,80.640625 Z m 42.421875,0 L 103.09375,128 h 21.21484 L 76.945312,80.640625 Z m 42.429687,0 L 128,110.48047 V 89.269531 l -8.62891,-8.628906 z M 0,88.546875 V 109.76172 L 18.238281,128 h 21.214844 z m 0,0"
             id="path2034" />
        </g>
      </g>
    </g>
    <g
       inkscape:groupmode="layer"
       id="layer2"
       inkscape:label="Layer 1"
       style="display:none;mix-blend-mode:normal">
      <g
         id="g976"
         transform="translate(-72.126808,-2)"
         style="display:inline;fill:#00ffff;fill-opacity:1;enable-background:new">
        <path
           d="M 44.012301,210.88755 30,203.27182 V 208 l 9.710724,4.62951 v 0.1422 L 30,218 v 4.72818 l 14.012301,-8.21451 z"
           style="font-style:normal;font-variant:normal;font-weight:bold;font-stretch:normal;font-size:medium;line-height:1.25;font-family:'Source Code Pro';-inkscape-font-specification:'Source Code Pro, Bold';font-variant-ligatures:normal;font-variant-caps:normal;font-variant-numeric:normal;font-feature-settings:normal;text-align:start;letter-spacing:0px;word-spacing:0px;writing-mode:lr-tb;text-anchor:start;fill:#00ffff;fill-opacity:1;stroke:none;stroke-width:0.25"
           id="path972" />
        <path
           d="m 47.999998,226 2e-6,4 h 16.00001 l -2e-6,-4 z"
           style="font-style:normal;font-variant:normal;font-weight:bold;font-stretch:normal;font-size:medium;line-height:1.25;font-family:'Source Code Pro';-inkscape-font-specification:'Source Code Pro, Bold';font-variant-ligatures:normal;font-variant-caps:normal;font-variant-numeric:normal;font-feature-settings:normal;text-align:start;letter-spacing:0px;word-spacing:0px;writing-mode:lr-tb;text-anchor:start;fill:#00ffff;fill-opacity:1;stroke:none;stroke-width:0.25"
           id="path974" />
      </g>
    </g>
  </g>
</svg>
